\relax 
\providecommand*{\memsetcounter}[2]{}
\catcode `:\active 
\catcode `;\active 
\catcode `!\active 
\catcode `?\active 
\bibstyle{plain}
\select@language{french}
\@writefile{toc}{\select@language{french}}
\@writefile{lof}{\select@language{french}}
\@writefile{lot}{\select@language{french}}
\@writefile{toc}{\contentsline {chapter}{Table des mati{\`e}res}{2}}
\@writefile{lof}{\addvspace {10pt}}
\@writefile{lot}{\addvspace {10pt}}
\@writefile{toc}{\contentsline {chapter}{\chapternumberline {1}Algorithme Na\"{i}f}{4}}
\@writefile{toc}{\contentsline {section}{\numberline {1.1}\'Etude de l'algorithme}{4}}
\@writefile{toc}{\contentsline {subsection}{Explication}{4}}
\@writefile{toc}{\contentsline {subsection}{Complexit\'{e}}{5}}
\@writefile{toc}{\contentsline {section}{\numberline {1.2}Test de l'algorithme}{5}}
\@writefile{toc}{\contentsline {subsection}{Environnement de test et m\'{e}thodologie}{5}}
\@writefile{toc}{\contentsline {subsection}{R\'{e}sultats des calculs}{5}}
\@writefile{lof}{\addvspace {10pt}}
\@writefile{lot}{\addvspace {10pt}}
\@writefile{toc}{\contentsline {chapter}{\chapternumberline {2}M\'{e}thode du Rho de Pollard}{8}}
\@writefile{toc}{\contentsline {section}{\numberline {2.1}\'{E}tude de l'algorithme}{8}}
\@writefile{toc}{\contentsline {subsection}{Explication}{8}}
\@writefile{toc}{\contentsline {subsection}{Optimisation de l'algorithme}{9}}
\@writefile{toc}{\contentsline {subsection}{Complexit\'{e}}{9}}
\@writefile{toc}{\contentsline {section}{\numberline {2.2}Test de l'algorithme}{10}}
\@writefile{toc}{\contentsline {subsection}{Environnement de test et m\'{e}thodologie}{10}}
\@writefile{toc}{\contentsline {subsection}{R\'{e}sultats des calculs}{10}}
\@writefile{lof}{\addvspace {10pt}}
\@writefile{lot}{\addvspace {10pt}}
\@writefile{toc}{\contentsline {chapter}{\chapternumberline {3}Algorithme du crible quadratique}{13}}
\@writefile{toc}{\contentsline {section}{\numberline {3.1}\'Etude de l'algorithme}{13}}
\@writefile{toc}{\contentsline {subsection}{Explication}{13}}
\@writefile{toc}{\contentsline {subsubsection}{Objectif de l'algorithme}{14}}
\@writefile{toc}{\contentsline {subsubsection}{Phase de collecte de donn\'{e}es}{14}}
\@writefile{toc}{\contentsline {subsubsection}{Phase d'exploitation des donn\'{e}es}{15}}
\@writefile{toc}{\contentsline {subsection}{Optimisation avec les reste chinois}{15}}
\@writefile{toc}{\contentsline {subsection}{Complexit\'{e}}{16}}
\@writefile{toc}{\contentsline {section}{\numberline {3.2}Test de l'algorithme}{16}}
\@writefile{toc}{\contentsline {subsection}{Tests et m\'{e}thodologie}{16}}
\@writefile{toc}{\contentsline {subsection}{R\'{e}sultats des tests}{17}}
\@writefile{toc}{\contentsline {section}{\numberline {3.3}Sources}{19}}
\@writefile{toc}{\contentsline {section}{\numberline {3.4}Programme}{20}}
\memsetcounter{lastsheet}{20}
\memsetcounter{lastpage}{20}
